type,level
3,3
3,3
3,3
1,2
1,6
3,2
3,8
2,1
1,8
1,8
2,8
3,3
3,7
3,10
1,9
3,10
1,6
1,4
1,3
1,1
1,4
2,7
3,6
3,5
3,6
3,5
2,10
1,6
1,1
2,9
3,9
3,9
3,10
3,3
1,4
3,3
2,3
1,6
1,5
3,9
2,8
1,4
3,6
3,7
2,2
2,8
3,9
2,1
3,3
2,1
1,9
3,1
1,4
2,10
3,9
3,6
2,6
1,8
3,4
1,4
2,1
3,2
1,9
1,2
3,6
2,9
2,9
2,7
3,5
2,9
2,8
1,10
1,2
1,5
3,7
2,5
1,4
