type,level
3,7
1,5
3,2
2,9
3,10
1,6
3,4
1,5
2,5
3,3
2,2
2,8
3,1
2,1
1,8
3,3
2,5
1,2
1,7
3,5
2,7
1,10
2,6
1,6
2,2
2,10
1,3
2,9
1,5
2,10
1,5
3,9
2,6
3,1
1,7
2,9
2,9
2,10
1,7
1,2
3,4
3,9
2,5
2,3
2,2
3,10
3,1
3,1
3,10
2,9
2,5
3,8
1,9
2,2
2,3
2,3
3,6
3,9
2,2
2,8
3,7
1,8
3,4
2,9
1,5
3,6
1,4
1,3
3,1
1,6
2,2
3,8
1,3
2,10
2,6
2,5
2,1
