type,level
2,8
1,2
3,1
3,3
2,1
3,7
1,3
3,3
1,4
3,10
1,4
1,7
3,6
3,7
1,9
1,3
2,10
3,3
2,1
1,4
1,8
2,9
3,9
2,8
2,7
3,3
3,5
3,6
3,3
3,7
2,3
2,5
1,6
2,2
2,5
2,7
2,4
1,3
2,9
2,1
3,6
3,3
2,5
3,7
3,9
1,8
1,9
1,4
1,6
2,10
2,1
1,5
3,3
3,8
3,7
2,1
1,7
1,2
2,3
2,3
3,2
3,5
2,8
1,1
