type,level
3,7
2,1
3,7
1,7
1,3
2,8
2,6
2,2
2,3
3,9
2,8
2,8
1,1
2,10
2,5
2,3
2,7
3,2
3,6
3,5
3,4
1,1
3,5
3,8
1,4
3,8
1,3
2,6
3,8
1,9
3,1
3,3
1,3
1,4
2,7
3,10
3,8
3,8
1,2
2,5
2,7
1,5
1,6
2,5
1,2
2,3
1,9
3,5
1,1
1,1
2,9
1,9
1,5
2,10
2,9
3,7
3,1
3,7
3,1
3,4
2,7
1,4
1,8
2,1
1,5
