type,level
2,6
3,9
3,7
2,1
2,9
3,6
3,7
1,10
2,7
2,10
2,2
3,9
1,5
2,10
3,9
2,1
1,8
1,8
1,6
3,9
1,1
3,9
2,7
3,2
1,2
3,6
2,7
3,4
3,4
1,8
1,7
1,5
3,2
1,2
3,9
3,6
3,7
3,2
2,3
1,8
2,6
3,4
3,5
2,8
2,9
3,9
2,3
1,4
3,6
2,2
2,7
2,3
2,9
3,8
1,1
1,4
3,10
2,1
