type,level
1,10
2,9
3,3
2,10
2,3
3,10
2,3
3,5
1,6
1,10
2,9
3,6
2,10
3,5
2,10
1,2
3,4
2,10
1,1
2,4
1,2
3,7
2,10
3,7
3,4
1,2
2,8
2,4
2,8
3,1
1,9
3,8
3,9
2,3
1,1
1,2
3,1
1,1
2,1
3,4
1,9
2,1
2,10
1,1
3,7
3,9
2,3
3,2
3,4
1,6
1,6
3,5
3,4
2,9
1,1
3,7
2,6
1,9
3,2
2,3
3,2
3,7
1,7
3,6
1,2
1,9
2,3
1,9
