type,level
1,6
3,7
1,7
2,10
2,8
2,2
1,10
1,8
2,2
3,9
2,9
1,2
1,2
3,6
3,8
3,2
1,8
1,4
1,3
3,5
2,5
1,4
2,9
1,1
1,7
3,3
1,5
3,2
3,2
1,2
2,6
1,7
3,5
1,1
1,4
2,8
1,4
1,3
1,7
2,8
2,7
1,8
3,7
3,8
2,9
3,2
1,3
2,10
1,1
3,6
1,5
3,1
1,10
3,2
2,5
1,1
3,8
2,4
1,8
3,3
2,9
1,8
2,1
3,2
2,7
2,4
1,4
1,4
1,3
3,2
1,6
3,7
2,9
2,3
2,1
3,6
