type,level
3,7
2,1
2,2
1,1
2,9
2,7
1,6
2,8
2,7
2,6
1,9
3,5
2,1
1,6
3,9
1,1
2,8
1,7
2,7
1,5
1,2
1,9
2,1
1,7
1,3
2,9
3,4
3,9
1,1
1,4
3,6
3,3
2,7
1,6
3,5
3,9
1,3
1,6
2,9
3,1
1,7
2,1
2,1
1,6
3,8
1,1
2,8
1,8
2,7
3,9
2,2
2,10
3,6
2,10
3,8
3,10
2,10
1,4
3,7
3,5
2,7
3,10
2,10
3,6
1,5
2,6
1,5
3,4
1,3
3,9
1,10
3,9
1,4
1,6
2,5
1,10
1,7
1,6
3,1
3,6
1,4
1,9
3,2
3,10
1,10
2,5
1,6
2,8
2,2
