type,level
2,8
1,9
1,6
1,6
2,4
1,5
2,5
3,3
1,5
2,3
3,3
2,1
1,10
3,8
2,9
3,10
2,9
3,9
3,8
2,7
3,5
3,7
2,7
1,1
2,5
1,9
3,9
3,7
3,1
1,5
3,8
3,9
2,1
2,8
1,10
3,1
2,9
3,8
1,10
2,7
3,7
2,2
1,3
2,7
3,4
1,3
1,3
3,9
2,2
1,4
2,5
2,7
2,3
1,2
3,9
3,6
3,10
3,8
1,1
1,9
2,2
2,10
1,6
2,3
3,1
1,2
1,6
3,3
3,6
2,10
2,2
2,8
1,7
2,5
3,2
3,8
3,8
