type,level
1,7
3,1
3,7
1,2
2,6
3,3
1,9
1,2
3,1
2,9
3,5
1,6
2,2
2,4
1,4
3,10
3,8
3,8
2,3
3,3
2,6
1,7
1,8
2,8
3,4
1,10
3,9
2,9
2,9
2,5
1,4
1,7
1,10
3,10
2,1
3,8
1,9
1,1
2,3
2,9
1,9
3,6
2,7
