type,level
3,1
1,2
2,1
3,5
1,4
2,6
3,5
2,7
2,7
3,10
1,4
3,10
1,2
2,7
1,6
1,8
3,4
1,7
3,4
2,2
3,5
1,5
2,1
1,10
1,3
3,8
3,9
1,5
2,3
2,2
2,2
2,9
1,2
3,5
1,4
2,6
3,2
3,8
3,10
2,3
1,1
3,9
3,10
2,2
3,7
2,6
3,8
3,5
3,5
1,2
1,2
2,4
2,8
3,1
3,9
3,3
1,9
1,2
2,2
