type,level
3,1
1,3
3,3
2,8
1,9
3,8
2,6
3,8
1,3
1,3
1,3
3,5
2,3
3,6
1,9
2,5
2,1
3,9
3,6
2,4
3,8
1,3
2,2
2,3
3,4
1,6
3,9
2,3
2,9
1,2
3,7
1,6
3,9
3,10
1,10
1,8
1,5
3,3
2,7
3,3
2,9
2,9
2,1
3,6
1,5
2,3
1,6
2,6
1,1
1,7
2,3
3,7
2,6
1,1
2,10
3,2
3,10
3,7
1,7
2,1
2,10
1,2
3,3
3,6
3,7
3,3
1,1
2,8
1,10
3,8
1,4
1,4
2,8
2,9
3,7
