type,level
2,9
2,1
1,6
3,5
2,4
1,1
1,8
3,8
2,3
1,5
3,4
2,7
2,4
1,6
3,9
3,6
3,7
3,7
3,7
3,3
2,7
3,6
1,3
2,1
1,8
3,1
3,4
2,10
3,8
2,8
3,6
3,10
3,2
3,1
1,9
2,5
3,5
3,8
2,7
2,6
3,9
3,9
2,7
3,9
1,10
3,4
1,4
2,8
3,1
1,10
1,3
2,5
3,3
2,3
3,6
1,1
2,3
3,10
1,7
2,4
1,10
3,6
2,10
2,8
3,6
3,5
3,9
3,7
3,10
2,8
3,3
2,2
3,5
2,10
2,8
