type,level
2,4
1,2
3,6
3,8
3,3
1,5
3,8
1,4
1,5
3,1
1,2
2,9
2,6
2,1
3,5
3,10
1,5
2,3
2,5
3,5
3,2
2,6
2,6
1,10
2,10
2,10
2,3
3,8
2,4
2,3
1,10
3,7
3,10
2,3
1,3
2,8
1,8
1,7
3,1
3,3
1,2
3,4
2,9
1,5
2,3
2,5
3,7
