type,level
2,8
1,1
1,7
3,6
2,10
3,4
2,2
2,7
2,2
3,6
3,1
1,5
1,6
3,7
2,8
1,1
2,3
1,10
3,7
3,4
1,9
2,1
2,10
1,1
3,8
1,3
2,2
1,8
1,10
3,10
2,10
1,2
1,4
2,5
1,6
3,10
1,6
2,10
2,3
3,1
3,4
2,5
2,1
3,5
1,8
3,9
2,1
2,6
1,2
3,10
1,1
3,3
1,6
1,4
3,1
2,7
3,6
2,5
3,10
1,6
