type,level
1,4
2,6
3,7
1,9
1,2
1,10
1,3
1,8
2,1
3,6
1,8
2,8
3,4
1,2
1,1
1,4
1,1
3,7
2,4
2,5
1,10
1,7
3,9
2,7
3,5
2,8
2,1
2,7
1,2
2,1
3,8
2,10
1,7
2,7
1,9
3,3
3,7
1,5
1,6
3,2
3,7
3,4
3,2
1,9
2,3
2,6
3,4
1,6
3,6
1,8
1,8
1,4
3,3
