type,level
3,10
1,6
1,10
1,9
2,5
1,6
2,2
2,6
2,1
3,8
2,4
3,5
3,1
3,5
1,1
1,7
1,5
2,4
2,8
1,2
1,7
2,9
3,6
2,10
2,1
1,1
2,2
2,4
3,10
1,6
2,2
3,10
1,10
1,1
1,2
1,7
2,4
3,4
3,6
3,3
3,3
3,7
1,8
1,8
3,4
3,10
2,8
2,5
1,4
2,9
1,1
1,9
2,1
1,10
1,7
2,9
3,4
2,9
1,2
1,9
3,3
2,9
1,2
2,4
1,7
1,1
3,9
1,4
3,8
1,8
2,3
3,5
2,5
2,4
1,10
2,5
3,4
1,2
2,9
3,7
1,10
3,8
3,2
2,1
3,8
3,1
