type,level
3,2
2,1
1,5
2,4
2,4
2,2
3,10
1,1
1,9
3,4
3,8
1,3
1,4
1,9
1,1
3,9
3,9
2,4
1,3
2,9
1,6
1,8
1,9
2,7
1,1
3,5
2,2
3,10
3,10
1,3
2,5
2,10
2,5
3,9
1,5
2,4
3,10
2,1
3,5
3,3
3,5
3,1
2,3
1,5
3,2
3,6
1,4
3,1
3,2
2,3
