type,level
3,10
2,10
2,1
2,1
2,8
3,1
2,4
3,6
1,5
2,4
3,8
3,6
1,10
2,6
1,8
2,10
2,5
3,4
2,2
1,6
1,10
1,5
1,10
1,2
3,9
1,10
2,10
2,5
3,8
3,6
2,3
3,3
3,7
2,2
1,6
1,10
3,4
2,8
3,4
3,1
1,4
3,9
2,5
2,10
3,1
3,5
1,9
2,5
3,9
1,3
2,4
3,6
3,4
2,10
3,7
2,7
2,2
1,5
2,6
2,3
2,7
2,2
1,2
1,7
1,3
1,2
1,5
1,8
3,9
3,8
1,8
2,5
2,10
