type,level
3,8
1,3
2,10
2,9
1,2
2,7
1,8
1,5
2,9
1,4
3,1
3,10
3,2
2,1
1,1
2,5
3,3
2,3
1,9
1,1
2,2
2,5
2,3
1,6
2,6
2,1
3,6
2,6
3,2
1,9
3,8
2,7
3,4
1,5
1,6
3,9
1,6
1,9
1,6
3,9
3,9
3,3
2,4
3,4
1,5
3,1
1,8
1,8
1,5
1,6
1,1
3,1
2,7
3,7
2,4
3,2
2,7
1,2
1,7
1,6
1,8
2,7
3,7
1,7
1,4
