type,level
2,2
3,4
1,6
2,2
2,10
3,10
2,2
3,8
2,7
1,6
1,8
2,10
2,3
2,1
1,8
3,5
1,1
3,3
1,3
2,9
2,5
3,6
3,6
1,4
2,1
3,2
1,8
2,5
1,8
1,10
1,7
3,8
3,8
1,2
3,7
2,8
2,9
3,10
3,6
2,3
2,7
1,4
1,6
2,5
1,3
1,8
3,3
