type,level
1,4
3,6
2,4
2,9
3,6
1,8
2,6
3,3
2,6
3,2
1,1
3,4
1,3
1,2
3,3
2,2
1,7
2,1
2,1
2,4
1,4
1,1
3,3
3,4
2,9
2,5
1,4
3,7
1,4
2,4
2,2
3,1
3,10
3,4
2,6
2,2
2,7
1,4
2,4
1,8
3,6
3,1
2,1
3,7
2,2
3,6
1,6
3,6
2,2
2,8
1,7
1,6
3,4
2,1
