type,level
3,5
3,7
2,6
2,6
2,5
1,7
2,5
3,3
1,1
1,4
1,2
2,3
2,3
1,3
2,5
2,3
1,2
2,3
1,6
1,2
2,6
3,8
1,8
2,4
2,10
3,8
3,5
1,4
1,7
1,10
3,5
2,8
1,3
3,4
2,10
2,5
1,10
2,4
2,6
3,9
1,1
2,2
3,8
3,3
3,1
2,7
1,1
2,6
3,10
2,1
2,9
3,4
2,8
3,7
3,6
3,4
1,9
1,3
3,4
3,4
3,7
2,2
2,3
1,8
1,6
1,7
1,7
2,3
2,5
2,6
3,8
1,7
2,10
