type,level
1,8
3,10
3,1
1,7
1,7
1,3
3,5
1,1
3,7
3,8
1,5
3,5
1,1
3,2
3,5
3,6
3,7
1,6
1,6
2,3
3,3
1,7
2,4
1,8
1,2
3,8
2,10
1,6
1,6
2,4
1,3
3,3
2,10
1,4
1,6
3,5
3,9
2,7
3,5
2,6
3,10
3,9
2,6
2,5
1,4
1,8
2,5
2,6
1,9
3,3
1,5
3,10
2,8
2,2
1,8
1,4
1,9
2,8
