type,level
3,10
3,2
3,9
2,2
3,6
2,6
3,4
2,4
3,1
2,5
1,3
2,1
2,8
1,4
1,4
2,7
3,1
1,1
3,4
3,3
3,9
2,10
3,2
2,6
3,5
2,10
1,8
3,7
2,8
1,5
1,8
3,3
3,2
2,3
1,1
2,8
3,1
3,3
2,2
1,2
1,10
2,5
2,10
