type,level
3,8
3,8
2,8
1,2
1,5
1,5
1,3
2,7
3,6
3,3
1,9
1,2
1,1
1,6
3,8
2,5
3,10
3,3
1,6
3,1
3,5
3,6
3,5
1,2
3,3
1,7
2,5
1,10
2,2
1,2
1,5
3,9
2,1
2,9
1,8
2,10
1,6
3,9
3,4
3,9
3,5
2,5
