type,level
3,3
1,1
2,5
2,7
3,9
3,3
1,6
1,10
1,2
3,2
1,5
1,8
1,5
1,1
3,8
3,10
2,7
1,6
2,10
1,6
2,9
3,7
1,9
2,10
3,4
1,4
1,4
3,1
3,5
2,9
2,1
2,3
2,4
2,2
3,8
1,4
3,10
