type,level
2,5
1,1
3,2
1,4
3,1
1,3
1,10
3,9
2,2
3,10
2,2
1,8
2,5
2,1
3,4
2,6
3,9
3,8
1,1
1,6
3,2
1,3
2,3
1,10
1,9
2,3
1,4
2,2
2,1
2,6
3,1
2,8
2,6
2,8
2,3
2,6
1,4
3,1
3,10
3,7
3,4
1,6
2,6
2,3
2,2
1,6
1,1
1,2
3,5
1,4
2,10
1,3
3,5
2,3
2,7
2,8
2,5
2,8
3,2
3,8
3,8
3,9
