type,level
3,5
1,10
2,5
1,10
2,5
2,7
3,7
2,6
2,10
2,8
2,7
1,8
1,5
1,6
2,9
1,5
1,3
3,5
3,9
1,8
2,6
2,1
1,5
1,1
1,3
3,3
1,3
2,9
2,7
2,4
2,2
3,10
3,3
3,4
2,3
3,6
2,7
2,10
2,3
1,9
3,10
3,5
3,4
