type,level
3,1
3,6
3,7
3,7
1,9
1,9
2,5
3,9
1,3
1,7
1,10
2,7
1,9
1,4
3,6
3,7
3,2
2,5
1,6
1,4
1,3
3,6
3,1
2,2
2,5
3,9
1,4
2,10
2,8
1,1
3,4
3,7
1,3
3,4
3,7
3,10
2,10
3,6
2,3
3,4
2,4
2,2
2,5
2,3
3,4
2,7
3,2
1,3
2,1
2,5
3,7
2,2
2,1
3,4
2,8
2,2
3,7
3,4
3,2
3,3
2,6
1,1
2,2
1,9
1,5
2,8
1,1
1,3
1,10
2,10
2,10
1,4
1,4
3,2
3,10
3,6
3,10
3,1
3,9
1,4
2,7
1,6
2,7
2,5
