type,level
1,6
1,4
3,6
1,6
3,10
3,4
3,2
3,9
2,10
2,9
1,7
3,7
1,7
3,1
1,6
1,7
3,9
1,7
1,2
2,3
3,7
2,3
3,7
3,7
1,10
2,10
3,5
3,10
2,7
3,5
1,6
2,9
3,8
2,7
2,2
1,10
2,7
3,4
2,8
3,6
2,6
1,6
2,7
2,4
2,8
3,4
1,1
3,3
2,7
1,4
2,7
3,5
2,7
1,6
1,10
1,9
3,3
3,3
1,7
3,1
3,10
2,1
2,1
2,6
2,6
1,6
2,10
2,1
2,5
3,9
3,6
3,8
2,1
1,9
3,3
3,5
2,1
1,1
2,2
1,7
3,4
2,8
2,7
