type,level
2,9
1,10
2,6
3,9
2,10
1,7
1,10
2,4
1,5
3,5
2,3
1,9
3,4
3,1
3,4
2,7
3,8
3,5
1,10
1,3
3,3
1,9
3,4
1,7
2,8
2,9
2,8
2,1
1,3
3,5
3,3
3,8
1,10
1,8
3,5
2,9
1,8
3,7
2,7
1,8
2,1
3,8
3,10
2,9
1,6
3,6
