type,level
2,1
1,3
2,1
1,10
1,3
2,9
1,8
1,5
1,3
2,5
2,3
1,8
2,8
3,3
3,5
3,4
1,3
2,3
2,6
3,3
1,4
3,8
2,9
1,6
3,8
3,3
3,8
1,5
3,9
2,2
2,2
2,8
3,4
3,6
1,2
3,4
1,1
3,6
2,6
1,10
1,8
1,10
3,3
3,8
3,9
1,7
1,7
3,5
2,9
2,6
3,3
3,9
3,6
