type,level
2,3
2,6
3,4
2,7
3,5
1,7
3,5
1,6
3,7
2,6
3,6
1,8
3,1
1,3
1,4
2,8
2,9
1,1
2,6
1,3
3,4
1,8
2,1
2,3
1,7
3,3
3,7
1,7
3,3
3,1
1,7
2,10
1,6
1,6
3,5
1,3
1,9
2,3
1,1
3,4
1,7
2,7
1,1
2,6
2,7
1,7
3,9
1,3
3,5
2,5
1,9
3,2
3,10
1,6
3,5
1,2
3,2
3,6
3,1
3,7
1,7
3,9
3,5
