type,level
3,8
1,8
3,7
1,4
1,10
2,7
2,10
3,1
2,1
3,5
3,6
2,7
3,8
2,10
3,3
3,3
3,5
1,1
3,7
2,3
2,2
1,10
2,1
2,2
3,1
3,8
3,9
1,4
1,10
3,5
1,1
1,6
1,10
3,6
1,5
3,2
2,2
1,3
3,5
3,4
3,8
3,4
2,4
3,8
2,3
2,4
1,1
2,6
1,10
3,7
3,1
3,1
2,1
2,1
2,6
2,1
1,7
2,8
1,10
2,6
3,5
3,7
1,6
3,8
3,1
2,2
2,10
2,2
3,8
3,10
3,10
2,6
2,10
2,7
1,8
