type,level
2,6
1,8
3,6
1,4
1,5
1,7
3,10
3,5
3,5
1,5
1,3
1,4
2,6
1,10
3,5
1,10
2,5
1,4
2,4
2,8
2,4
1,7
3,3
2,7
3,8
2,2
3,2
1,5
3,2
1,7
1,8
3,4
1,8
2,6
1,2
3,2
1,7
1,4
3,9
3,4
1,8
1,8
1,8
3,7
1,6
1,6
1,7
2,3
2,10
3,5
1,7
3,6
2,2
3,6
2,1
3,7
2,10
3,3
2,5
1,4
1,6
3,9
2,4
3,1
2,8
2,8
3,9
1,6
1,5
1,5
2,2
