type,level
1,8
1,6
3,7
2,7
3,1
3,5
2,6
1,10
2,8
3,7
2,5
2,5
1,4
3,9
3,7
1,6
2,5
2,6
3,5
2,6
3,10
2,1
3,5
2,6
1,4
1,4
1,7
1,10
1,7
1,7
2,1
2,1
1,10
1,3
3,9
3,4
3,5
1,9
1,4
2,2
3,10
3,10
2,6
3,1
2,9
3,10
3,8
2,5
3,6
1,5
2,4
1,2
2,1
1,7
2,7
3,8
3,1
