type,level
1,3
2,2
2,9
2,7
3,10
2,2
3,5
2,9
2,9
2,10
3,10
2,4
3,7
3,7
2,4
2,3
3,10
1,9
1,10
2,6
3,3
1,9
2,5
3,6
1,8
3,6
1,3
1,9
3,6
2,1
3,1
2,7
3,8
1,7
2,6
3,7
1,6
2,6
2,9
1,3
1,1
1,2
1,3
2,1
2,8
2,1
1,7
3,3
1,4
3,4
2,6
3,7
3,4
1,9
2,7
2,3
2,1
1,8
3,7
2,9
2,1
3,8
3,10
1,4
2,1
3,7
2,5
3,7
3,7
1,9
3,10
3,8
1,4
2,7
3,10
2,6
2,3
3,10
1,7
2,8
1,1
2,2
3,2
3,1
3,9
3,6
3,3
2,7
