type,level
2,2
1,8
3,10
1,5
3,2
1,2
2,10
3,6
2,1
3,5
1,9
1,3
3,6
3,1
2,5
1,6
2,5
2,3
3,9
2,6
1,10
3,5
3,6
1,3
2,3
2,1
2,7
1,4
1,6
2,8
1,7
1,3
2,9
3,6
3,9
3,1
2,2
2,10
1,7
1,8
3,6
1,1
2,10
2,4
3,10
1,2
2,7
2,10
3,2
2,5
3,4
1,5
2,9
2,4
3,1
2,5
1,1
2,4
3,2
2,7
3,4
1,6
1,4
3,2
1,4
2,10
1,4
3,4
3,6
3,1
1,1
3,10
2,1
2,10
3,4
3,10
1,9
2,7
3,7
2,9
1,6
2,3
2,3
1,10
2,7
1,2
