type,level
1,1
1,5
2,6
2,9
3,1
1,8
2,1
2,7
3,1
3,3
2,6
2,5
3,7
2,1
3,1
1,5
1,6
2,8
3,7
1,2
2,5
1,4
2,10
2,3
2,6
2,10
3,2
2,5
2,7
2,6
1,7
2,6
2,3
3,5
1,4
2,8
1,1
2,7
2,10
1,9
3,6
1,4
2,8
3,5
3,7
1,8
2,9
1,7
1,9
3,1
2,6
2,7
2,10
3,6
1,6
1,1
2,1
3,10
1,8
2,7
1,2
2,10
1,6
1,7
1,3
2,3
2,4
