type,level
2,6
1,6
1,4
2,5
2,9
2,1
1,1
1,10
3,10
1,2
2,3
1,9
2,6
2,5
1,2
2,4
3,1
3,5
2,1
3,9
1,2
2,2
1,6
3,5
2,1
2,3
2,8
1,3
2,4
1,7
1,6
2,7
2,10
1,2
3,8
2,5
2,9
3,3
1,7
3,8
1,3
3,4
1,1
1,6
2,7
2,9
1,8
1,2
3,3
2,1
3,9
3,6
1,5
1,3
2,2
1,1
2,7
1,2
1,1
3,1
3,4
1,8
3,9
3,9
3,6
1,2
3,1
3,9
1,4
2,1
2,5
1,2
2,10
2,3
1,9
2,3
1,5
1,7
1,3
1,9
2,3
2,4
2,3
1,9
1,3
1,2
