type,level
1,5
3,1
3,7
3,2
1,3
3,2
1,6
1,3
3,7
3,4
1,3
2,3
2,7
2,9
2,10
1,7
2,10
1,10
3,9
2,10
1,2
3,6
1,7
2,9
2,5
2,2
1,7
3,7
1,5
2,7
2,7
1,7
2,6
2,4
1,7
3,9
1,6
3,9
3,2
1,1
1,9
2,8
3,5
1,10
2,6
1,3
3,4
3,10
1,5
1,9
1,7
3,6
1,4
2,3
2,8
1,4
3,10
2,6
1,9
3,4
1,2
3,3
1,5
1,4
1,2
1,10
1,6
1,8
3,10
3,1
