type,level
2,1
3,2
3,9
3,10
3,5
3,5
1,1
1,7
2,7
2,3
2,7
2,3
3,2
2,6
3,7
2,4
1,9
3,3
3,5
3,8
3,4
2,5
1,7
2,5
1,5
2,9
3,10
2,10
1,6
3,7
1,4
2,5
3,8
2,9
1,8
2,5
1,4
3,8
2,10
2,4
2,7
3,9
3,7
2,4
1,3
3,6
3,10
2,3
1,2
3,2
3,5
3,3
3,7
2,6
2,7
2,9
2,2
1,2
3,2
2,7
3,6
3,6
1,2
1,9
1,2
2,6
1,7
1,10
1,8
1,4
3,4
1,2
3,7
2,8
3,3
2,4
1,8
1,7
1,2
