type,level
1,1
1,6
2,1
1,10
3,10
3,9
2,3
2,3
2,5
2,3
2,6
1,3
2,3
2,6
3,6
2,4
2,8
1,1
3,6
2,5
3,10
1,2
3,3
3,3
2,7
3,6
3,5
1,9
1,9
3,4
1,9
3,2
3,3
3,10
3,8
3,8
2,7
1,10
2,1
1,10
2,4
2,6
3,2
1,6
3,5
1,1
1,1
1,9
1,4
3,6
1,8
1,8
1,3
1,7
3,6
2,7
1,4
2,6
2,7
2,5
3,5
3,6
2,5
2,7
3,2
3,8
