type,level
3,7
2,7
1,7
2,2
2,7
1,10
1,9
1,3
1,8
1,6
1,5
2,5
3,4
1,1
1,8
1,6
3,7
1,4
3,10
3,7
2,6
3,9
3,8
1,4
2,9
2,4
3,6
1,7
1,9
2,5
1,4
3,8
2,1
3,8
2,9
2,9
1,10
3,3
3,4
1,3
1,8
3,2
3,10
1,2
1,4
2,6
3,5
2,2
3,9
3,7
1,8
1,1
2,9
2,8
2,8
2,8
1,10
1,4
3,3
3,8
2,5
2,3
2,8
2,6
