type,level
3,6
3,1
3,2
1,8
2,5
1,1
3,10
3,3
3,7
2,2
2,9
2,9
2,5
1,6
3,3
3,2
1,3
1,2
1,5
1,1
1,9
2,9
1,7
1,5
2,1
1,10
2,3
3,1
3,2
3,1
2,2
2,8
3,8
3,1
3,8
1,1
3,5
2,8
2,5
3,2
2,10
2,7
3,5
3,6
3,3
2,1
3,6
2,5
3,10
2,4
2,6
1,1
3,2
