type,level
3,8
1,1
2,3
3,5
3,1
2,2
2,8
2,9
3,1
3,4
2,8
3,10
2,6
1,8
3,7
1,8
1,3
2,8
3,9
3,5
3,3
2,5
2,2
3,2
2,4
1,10
1,7
2,9
1,10
3,4
2,8
2,7
1,9
2,2
3,7
3,1
3,5
1,5
3,3
2,9
3,8
3,4
3,6
3,7
2,9
2,1
2,7
1,3
3,7
1,8
2,8
3,5
2,9
2,1
2,7
2,4
3,8
3,3
1,9
2,4
2,6
1,4
1,3
1,1
1,6
1,7
1,2
2,2
1,1
2,7
1,2
