type,level
3,5
1,10
1,10
3,4
3,3
2,2
2,4
1,3
1,2
1,7
2,5
2,10
1,8
3,2
2,8
2,1
1,2
2,10
2,2
2,1
1,5
1,6
3,9
1,2
1,2
3,2
1,5
1,1
2,4
1,10
3,8
3,7
3,2
1,7
2,8
3,4
1,6
2,4
1,4
1,10
2,9
3,6
3,6
1,8
1,3
1,5
3,4
3,8
1,3
