type,level
2,7
3,10
1,2
1,5
1,8
1,1
1,9
2,10
3,7
3,3
2,5
1,2
3,6
3,2
3,10
3,6
2,9
1,1
2,1
3,8
1,6
2,2
3,6
3,6
2,2
2,3
2,6
3,1
2,4
2,4
1,8
3,2
2,6
2,1
3,7
3,3
3,3
2,7
1,1
2,6
3,10
3,1
2,8
3,8
2,3
3,8
2,2
1,5
1,1
1,10
1,2
3,7
3,4
1,7
2,9
3,1
3,6
2,5
2,9
1,1
3,10
2,1
1,1
2,5
1,1
1,7
3,1
1,6
1,5
1,8
2,1
3,7
1,7
3,5
2,3
1,7
1,2
2,6
2,1
2,8
2,2
3,1
2,5
2,4
3,3
2,2
2,9
2,7
