type,level
2,1
1,5
2,3
3,7
2,10
3,4
1,4
3,10
2,8
2,9
3,2
1,7
3,2
2,2
1,6
3,1
1,4
1,6
3,2
3,5
1,8
1,5
3,6
1,2
1,3
2,6
2,7
1,8
1,10
3,2
1,4
3,9
1,4
2,5
3,5
3,8
3,6
1,10
1,1
1,9
3,2
2,9
2,6
2,2
2,5
2,8
3,1
3,8
1,4
1,1
1,9
3,7
2,4
