type,level
2,8
3,3
2,5
3,4
3,1
3,5
3,2
1,8
3,1
3,5
1,10
1,9
1,1
1,1
2,5
1,4
3,10
1,1
1,10
3,9
2,2
2,4
2,3
2,1
2,6
1,10
2,4
1,9
1,6
1,6
2,2
2,6
3,7
2,7
3,10
1,9
3,9
3,7
3,9
2,9
2,9
2,7
2,3
1,6
1,9
3,1
2,4
1,4
1,2
1,1
3,5
2,6
3,2
1,7
3,5
2,3
1,3
3,7
1,1
2,5
3,6
3,1
3,1
2,4
3,8
2,6
3,3
1,6
1,1
3,10
2,7
1,2
3,8
1,1
2,4
2,1
2,1
1,4
3,4
2,8
1,6
1,9
3,7
3,9
