type,level
2,2
3,4
2,2
2,5
1,5
3,7
2,4
3,9
2,10
1,9
2,4
3,10
1,7
3,6
2,2
3,6
3,6
2,10
2,4
1,8
2,9
1,3
1,4
3,1
1,9
3,7
2,3
2,5
2,3
1,7
2,8
1,3
1,1
3,4
1,4
3,5
2,7
3,4
3,7
3,7
2,10
2,6
3,4
2,4
3,5
1,4
2,1
1,3
1,5
1,5
2,2
2,1
2,1
1,4
1,6
2,3
3,3
3,2
2,8
2,10
1,1
2,2
3,9
1,2
2,8
1,6
