type,level
3,10
1,10
2,1
1,6
3,3
1,2
1,1
1,9
1,7
1,1
3,6
3,3
1,8
2,7
2,7
3,8
3,1
1,6
3,7
1,10
2,10
3,6
3,2
1,3
2,6
2,5
2,2
2,7
1,6
2,5
3,5
3,4
3,6
1,6
2,3
2,1
2,9
2,2
1,6
3,9
2,6
1,7
2,1
1,10
1,10
1,2
2,5
1,2
2,7
1,6
1,4
3,6
1,1
3,2
2,2
2,3
2,8
3,4
3,8
1,2
3,5
1,9
2,7
1,4
2,9
1,4
2,1
1,4
1,1
1,3
3,5
