type,level
3,7
3,4
2,6
2,9
2,8
2,3
2,2
1,9
3,6
3,2
3,3
2,1
1,3
2,1
2,3
1,10
1,1
1,7
1,7
2,5
3,10
1,5
2,9
2,6
1,10
3,5
3,3
2,6
3,3
2,8
2,9
2,6
2,10
1,7
3,2
3,6
3,10
1,6
2,6
2,8
1,6
2,6
3,5
3,5
3,2
2,10
2,8
1,7
3,8
1,2
2,2
3,4
3,8
3,1
3,1
1,1
3,4
1,6
3,3
