type,level
1,1
1,4
1,4
2,9
3,5
3,5
3,5
2,6
2,4
3,9
1,9
3,4
1,1
2,4
3,8
1,9
3,6
1,2
2,7
3,1
3,4
2,8
1,6
3,5
1,7
3,9
1,9
2,2
1,1
1,5
2,3
2,5
2,2
1,7
3,4
3,5
1,10
2,4
1,4
2,9
3,7
1,7
2,6
1,10
