type,level
3,4
3,5
1,1
2,3
2,2
3,5
3,5
3,7
3,5
1,5
3,9
1,4
2,1
2,9
3,2
1,7
2,5
1,10
1,6
1,4
1,7
2,7
1,10
1,9
2,9
3,5
2,10
2,6
2,1
3,3
3,5
1,8
3,4
3,6
1,1
3,5
2,5
2,7
1,2
3,3
2,8
3,10
2,6
1,7
2,5
1,6
2,4
3,3
3,7
1,8
1,5
2,10
2,1
3,7
