type,level
2,9
3,8
3,8
2,1
2,4
1,7
2,10
3,9
2,3
2,5
2,9
3,10
1,8
2,9
1,3
1,4
2,8
2,10
2,4
1,8
2,9
3,8
3,1
1,3
2,7
2,7
2,10
2,5
1,6
3,10
1,6
1,9
3,6
1,3
3,10
1,3
1,8
3,1
2,6
3,7
2,9
2,5
3,3
2,1
2,1
3,3
2,9
1,7
1,6
2,1
1,3
2,1
2,2
1,3
3,1
3,8
2,5
1,6
1,1
1,10
2,5
2,6
1,5
3,2
2,4
3,6
2,4
2,8
2,4
3,1
2,6
3,3
3,6
1,7
1,3
1,3
3,10
2,8
3,8
3,5
1,8
2,8
