type,level
1,6
2,1
2,6
3,5
2,4
3,10
2,9
2,5
1,3
3,6
2,7
1,3
2,10
1,8
3,3
1,5
1,2
2,4
2,4
1,4
3,2
2,9
3,4
2,2
3,9
3,9
3,2
1,9
1,3
2,5
2,8
3,4
1,3
2,5
1,9
1,9
2,2
1,1
1,6
3,5
3,2
3,7
3,10
3,2
1,9
1,6
3,8
1,8
3,6
2,7
1,7
3,6
2,8
3,5
3,7
3,9
1,9
1,1
3,9
3,7
2,3
3,9
1,3
1,4
2,6
1,2
2,6
2,6
1,8
1,8
1,5
2,4
1,4
3,9
2,7
2,5
1,6
1,4
2,3
2,9
2,10
1,5
3,6
1,2
3,9
2,9
1,6
3,2
