type,level
3,4
1,5
1,5
3,6
2,2
2,2
2,1
3,4
1,8
3,8
3,8
3,7
2,8
3,2
3,3
2,8
2,6
1,8
2,8
2,4
3,6
1,2
2,1
1,10
3,1
2,6
3,3
3,5
3,2
2,9
2,1
2,3
3,10
1,6
2,6
3,4
1,5
1,9
1,7
2,7
2,2
2,10
2,1
1,10
2,3
3,3
