type,level
2,6
3,8
3,9
2,3
2,7
2,3
3,3
2,5
3,2
2,10
3,6
1,1
3,6
1,9
1,2
2,8
1,3
3,7
1,9
1,9
1,10
1,2
1,4
1,7
2,1
1,1
3,5
3,2
1,7
3,2
1,3
3,8
1,9
3,4
3,5
3,2
3,7
3,6
1,3
2,8
3,5
1,9
3,6
1,3
3,2
2,1
2,10
2,9
3,8
2,7
2,4
3,2
2,1
1,6
3,8
1,5
3,3
3,7
2,1
1,6
3,8
3,7
1,1
2,4
1,10
1,1
2,4
2,2
2,8
2,6
1,2
1,2
2,5
1,2
2,6
2,5
3,1
1,7
3,6
1,5
2,1
2,8
2,10
3,8
3,8
2,4
2,4
3,9
1,9
3,8
