type,level
1,3
2,4
1,1
3,2
3,5
1,1
1,4
1,2
1,4
2,2
1,5
3,6
1,5
2,4
2,10
2,5
3,7
2,10
1,7
2,6
2,10
2,10
2,7
2,7
1,4
1,4
3,4
2,10
2,6
3,7
1,10
1,7
1,8
1,2
1,8
2,6
3,10
1,3
3,5
1,5
2,4
1,5
3,2
3,5
2,6
1,1
1,5
3,2
3,6
1,1
1,4
1,6
1,5
1,4
2,10
1,6
1,10
3,9
1,4
