type,level
3,2
1,10
2,4
2,7
3,1
2,1
1,5
3,10
2,8
2,8
3,4
1,3
2,7
2,8
2,10
1,5
3,4
1,4
2,5
2,8
2,8
3,10
3,10
2,1
2,2
3,10
1,3
3,9
2,5
1,8
3,5
2,8
3,1
1,2
3,8
3,5
1,1
3,10
1,7
2,10
1,8
1,1
1,10
2,1
3,4
1,6
2,4
2,9
2,10
3,2
3,4
1,4
2,10
2,5
2,7
2,5
2,1
3,6
2,9
1,1
3,4
3,3
3,2
2,1
3,5
1,9
2,8
2,5
2,3
2,5
1,1
1,7
2,1
2,10
3,7
2,6
3,10
2,1
1,6
1,6
3,8
1,3
1,4
2,7
1,1
1,8
2,7
