type,level
1,6
1,10
2,7
2,1
1,6
2,8
2,10
1,4
1,3
2,8
1,6
3,6
2,4
2,10
2,6
2,10
3,3
1,5
1,1
3,1
3,5
1,6
1,8
2,8
3,3
3,2
3,6
1,2
1,3
3,1
2,4
2,7
2,5
1,7
1,1
3,3
1,5
3,3
3,1
3,6
2,6
3,3
2,2
2,3
2,7
1,3
1,6
3,4
1,4
2,2
2,2
3,9
1,8
1,2
1,7
1,9
2,2
1,6
1,2
3,6
1,1
3,4
1,10
2,4
2,1
2,2
