type,level
3,5
2,1
1,5
3,5
3,3
2,6
3,7
1,7
2,3
2,1
1,1
1,6
1,10
3,1
2,6
3,8
1,8
2,8
2,6
2,10
2,4
1,9
1,8
3,7
2,4
1,5
3,9
3,8
1,2
1,7
1,10
3,9
1,7
2,4
3,6
1,2
3,2
2,3
3,3
3,8
1,10
